{
    "success":  true,
    "source":  "copart",
    "cached":  false,
    "fresh":  true,
    "query":  "toyota",
    "page":  1,
    "limit":  3,
    "returned":  3,
    "total":  20,
    "totalPages":  7,
    "hasMore":  true,
    "vehicles":  [
                     {
                         "lot_number":  "89659405",
                         "vin":  "4T1K31AK2PU******",
                         "year":  "2023",
                         "make":  "TOYOTA",
                         "model":  "CAMRY",
                         "trim":  "N/A",
                         "body_style":  "N/A",
                         "odometer":  "75786 ",
                         "odometer_status":  "N/A",
                         "engine":  "2.5L  4",
                         "cylinders":  "4",
                         "transmission":  "N/A",
                         "drive":  "Front-wheel Drive",
                         "fuel":  "HYBRID ENGINE",
                         "exterior_color":  "WHITE",
                         "interior_color":  "N/A",
                         "doc_type":  "NW",
                         "title_type":  "CERTIFICATE OF TITLE",
                         "has_keys":  "Yes",
                         "primary_damage":  "NORMAL WEAR",
                         "secondary_damage":  "N/A",
                         "sale_status":  "Minimum Bid",
                         "current_bid":  "$9900",
                         "buy_it_now_price":  "N/A",
                         "estimated_retail_value":  "N/A",
                         "location":  "CA - VAN NUYS",
                         "auction_date":  "2025-11-13T17:00:00.000Z",
                         "imageUrl":  "https://cs.copart.com/v1/AUTH_svc.pdoc00001/lpp/1025/054c1f5051544eef8c1ffdede8262bd3_ful.jpg",
                         "images_gallery":  [

                                            ],
                         "images":  [

                                    ],
                         "image_count":  0,
                         "engine_video":  "N/A",
                         "highlights":  [

                                        ],
                         "copart_url":  "https://www.copart.com/lot/89659405",
                         "specifications":  {

                                            },
                         "styles":  [

                                    ],
                         "engines":  [

                                     ],
                         "features":  {

                                      }
                     },
                     {
                         "lot_number":  "89545145",
                         "vin":  "5YFB4MDE9RP******",
                         "year":  "2024",
                         "make":  "TOYOTA",
                         "model":  "COROLLA",
                         "trim":  "N/A",
                         "body_style":  "N/A",
                         "odometer":  "20442 ",
                         "odometer_status":  "N/A",
                         "engine":  "2.0L  4",
                         "cylinders":  "4",
                         "transmission":  "N/A",
                         "drive":  "Front-wheel Drive",
                         "fuel":  "GAS",
                         "exterior_color":  "SILVER",
                         "interior_color":  "N/A",
                         "doc_type":  "MN",
                         "title_type":  "CERTIFICATE OF TITLE",
                         "has_keys":  "Yes",
                         "primary_damage":  "MINOR DENT/SCRATCHES",
                         "secondary_damage":  "N/A",
                         "sale_status":  "Minimum Bid",
                         "current_bid":  "$A",
                         "buy_it_now_price":  "N/A",
                         "estimated_retail_value":  "N/A",
                         "location":  "AL - DOTHAN",
                         "auction_date":  "2025-11-13T17:00:00.000Z",
                         "imageUrl":  "https://cs.copart.com/v1/AUTH_svc.pdoc00001/lpp/1025/5ab60d11dfc04ad299373bc80a6522d6_ful.jpg",
                         "images_gallery":  [

                                            ],
                         "images":  [

                                    ],
                         "image_count":  0,
                         "engine_video":  "N/A",
                         "highlights":  [

                                        ],
                         "copart_url":  "https://www.copart.com/lot/89545145",
                         "specifications":  {

                                            },
                         "styles":  [

                                    ],
                         "engines":  [

                                     ],
                         "features":  {

                                      }
                     },
                     {
                         "lot_number":  "87437555",
                         "vin":  "JTDBCMFE2R3******",
                         "year":  "2024",
                         "make":  "TOYOTA",
                         "model":  "COROLLA",
                         "trim":  "N/A",
                         "body_style":  "N/A",
                         "odometer":  "17604 ",
                         "odometer_status":  "N/A",
                         "engine":  "1.8L  4",
                         "cylinders":  "4",
                         "transmission":  "N/A",
                         "drive":  "Front-wheel Drive",
                         "fuel":  "HYBRID ENGINE",
                         "exterior_color":  "GRAY",
                         "interior_color":  "N/A",
                         "doc_type":  "MN",
                         "title_type":  "CERTIFICATE OF TITLE",
                         "has_keys":  "Yes",
                         "primary_damage":  "MINOR DENT/SCRATCHES",
                         "secondary_damage":  "N/A",
                         "sale_status":  "On Approval",
                         "current_bid":  "$175",
                         "buy_it_now_price":  "N/A",
                         "estimated_retail_value":  "N/A",
                         "location":  "TN - NASHVILLE",
                         "auction_date":  "2025-11-18T17:00:00.000Z",
                         "imageUrl":  "https://cs.copart.com/v1/AUTH_svc.pdoc00001/lpp/1025/840f023c8d3643c9bf9b0f34f0a63751_ful.jpg",
                         "images_gallery":  [

                                            ],
                         "images":  [

                                    ],
                         "image_count":  0,
                         "engine_video":  "N/A",
                         "highlights":  [

                                        ],
                         "copart_url":  "https://www.copart.com/lot/87437555",
                         "specifications":  {

                                            },
                         "styles":  [

                                    ],
                         "engines":  [

                                     ],
                         "features":  {

                                      }
                     }
                 ],
    "message":  "Scraped 1 Copart page(s) = 20 vehicles in 137s. Now in cache.",
    "copartPagesScraped":  1,
    "scrapeDurationSeconds":  137,
    "timestamp":  "2025-11-13T02:17:11.126Z"
}
